﻿capital = 74

oob = "german"

# Starting tech
	set_technology = {
	# Raindome
		rations = 1
		fuel = 1

	# Sea Doctrine

		indirect_intervention = 1
		trade_interdiction2 = 1
		distracting_maneuver = 1
		convoy_raiding = 1
		naval_baiting = 1
		post_gw2 = 1
		trade_interdiction = 1
		convoy_interdiction = 1
		unrestricted_submarine_warfare = 1
		wolfpacks = 1

	# Air Doctrine
		powered_flight = 1
		air_recon = 1
		air_duel_doctrine = 1
		bomb_dropping = 1
		tas_concept = 1
		air_counter_air = 1
		flying_circus = 1
		formal_air_doctrine = 1
		interwar_fighter_doctrine = 1

		bomb_dropping = 1
		tas_concept = 1
		str_concept = 1
		cas_concept = 1
		interwar_bomber_doctrine = 1

		post_gw_doctrine = 1

		formation_flying = 1
		dive_bombing = 1
		direct_ground_support = 1
		formation_fighting = 1
		hunt_and_destroy = 1
		combat_unit_destruction = 1
		battlefield_support = 1
		naval_strike_torpedo_tactics = 1

	# Sea
		torpedo_gunboat = 1
		fleet_destroyer = 1
		turbine_destroyer = 1
		gw_destroyer = 1
		large_destroyer = 1
		improved_destroyer2 = 1

		protected_cruiser = 1
		scout_cruiser = 1
		early_light_cruiser2 = 1
		interwar_light_cruiser = 1
		improved_iw_lc = 1

		armored_frigate = 1
		armored_cruiser = 1
		improved_ac = 1
		early_hc = 1
		improved_hc = 1
		early_heavy_cruiser = 1

		early_gwbc = 1
		improved_gwbc = 1
		heavy_gwbc = 1
		improved_iwbc = 1

		turret_bs = 1
		pre_dread = 1
		dreadnought = 1
		dreadnought2 = 1
		early_bs = 1
		fast_bs = 1

		exp_sub = 1
		early_sub = 1
		diesel_sub = 1
		ocean_going_sub = 1

		advanced_carrier = 1
		advanced_submarine = 1
		early_destroyer = 1
		basic_destroyer = 1
		improved_destroyer = 1
		early_light_cruiser = 1
		basic_light_cruiser = 1
		improved_light_cruiser = 1
		early_heavy_cruiser = 1
		basic_heavy_cruiser = 1
		improved_heavy_cruiser = 1
		early_battlecruiser = 1
		basic_battlecruiser = 1
		early_battleship = 1
		basic_battleship = 1
		improved_battleship = 1
		heavy_battleship = 1
		transport = 1
		early_landing_craft = 1
		landing_craft = 1
		early_carrier = 1
		basic_carrier = 1
		improved_carrier = 1
		early_submarine = 1
		basic_submarine = 1
		improved_submarine = 1
		advanced_destroyer = 1
		advanced_light_cruiser = 1
		advanced_heavy_cruiser = 1
		advanced_battleship = 1
		heavy_battleship2 = 1

	# Tech Company
		tech_support = 1
		tech_support = 1
		tech_engineers = 1
		tech_engineers2 = 1
		tech_engineers3 = 1
		tech_engineers4 = 1
		tech_recon = 1
		tech_recon2 = 1
		tech_recon3 = 1
		tech_recon4 = 1
		tech_military_police = 1
		tech_military_police2 = 1
		tech_military_police3 = 1
		tech_military_police4 = 1
		tech_maintenance_company = 1
		tech_maintenance_company2 = 1
		tech_maintenance_company3 = 1
		tech_maintenance_company4 = 1
		tech_mortar_company1 = 1
		tech_mortar_company2 = 1
		tech_mortar_company3 = 1
		tech_mortar_company4 = 1
		tech_mortar_company5 = 1
		tech_mortar_company6 = 1
		tech_mortar_company7 = 1
		tech_engineers5 = 1
		tech_engineers6 = 1
		tech_engineers7 = 1
		tech_recon5 = 1
		tech_recon6 = 1
		tech_recon7 = 1
   		tech_military_police_5 = 1
		tech_military_police_6 = 1
		tech_military_police_7 = 1
		tech_maintenance_company5 = 1
		tech_maintenance_company6 = 1
		tech_maintenance_company7 = 1
		tech_field_hospital = 1
		tech_field_hospital2 = 1
		tech_field_hospital3 = 1

	# Air
		experimental_aircraft = 1
		airframe = 1
		engine = 1
		fuselage = 1
		scout_plane = 1
		air_armaments = 1


		early_fighter = 1
		basic_fighter = 1
		improved_fighter = 1
		fighter_engine = 1
		fighter_airframe = 1
		interwar_fighter = 1
		cv_early_fighter = 1

		heavy_engine = 1
		heavy_airframe = 1




		torpedo_bomb = 1



		interwars_naval_bomber = 1
		cv_naval_bomber0 = 1
		cv_naval_bomber01 = 1
		naval_bomber1 = 1

		early_CAS = 1
		basic_CAS = 1


		light_bomb = 1
		early_bomber = 1
		basic_bomber = 1
		improved_bomber = 1
		medium_bomb = 1
		heavy_bomb = 1
		engine3 = 1

		fuel_tank2 = 1





		fighter3 = 1
		cv_fighter3 = 1
		CAS3 = 1
		cv_CAS3 = 1
		naval_bomber3 = 1
		cv_naval_bomber3 = 1
		heavy_fighter3 = 1
		tactical_bomber3 = 1
		strategic_bomber3 = 1
		jet_fighter1 = 1
		early_fighter = 1
		cv_early_fighter = 1
		fighter1 = 1
		cv_fighter1 = 1
		fighter2 = 1
		cv_fighter2 = 1
		CAS1 = 1
		cv_CAS1 = 1
		CAS2 = 1
		cv_CAS2 = 1
		naval_bomber1 = 1
		cv_naval_bomber1 = 1
		naval_bomber2 = 1
		cv_naval_bomber2 = 1
		early_bomber = 1
		heavy_fighter1 = 1
		heavy_fighter2 = 1
		tactical_bomber1 = 1
		tactical_bomber2 = 1
		strategic_bomber1 = 1
		strategic_bomber2 = 1

	# Tanks

		armored_car = 1
		armored_car2 = 1
		armored_car3 = 1
		armored_car4 = 1
		armored_car5 = 1
		armored_car6 = 1
		armored_car7 = 1
		armored_car8 = 1
		armored_car9 = 1

		tank_engine = 1
		tank_armor = 1
		tank_gun = 1
		early_tank = 1
		early_tank2 = 1
		early_tank3 = 1
		modern_tank_design = 1

		basic_light_tank = 1
		basic_light_td = 1
		basic_light_art = 1
		basic_light_spaa = 1
		improved_light_tank = 1
		improved_light_td = 1
		improved_light_art = 1
		improved_light_spaa = 1
		advanced_light_tank = 1
		advanced_light_td = 1
		advanced_light_art = 1
		advanced_light_spaa = 1
		basic_medium_tank = 1
		basic_medium_td = 1
		basic_medium_art = 1
		basic_medium_spaa = 1
		improved_medium_tank = 1
		improved_medium_td = 1
		improved_medium_art = 1
		improved_medium_spaa = 1
		basic_heavy_tank = 1
		basic_heavy_td = 1
		basic_heavy_art = 1
		basic_heavy_spaa = 1
		improved_heavy_tank = 1
		improved_heavy_td = 1
		improved_heavy_art = 1
		improved_heavy_spaa = 1
		advanced_heavy_tank = 1
		advanced_heavy_td = 1
		advanced_heavy_art = 1
		advanced_heavy_spaa = 1

	# Artillery

		horse_artillery = 1
		horse_artillery2 = 1
		artillery_3 = 1
		artillery_4 = 1
		artillery_5 = 1
		artillery_6 = 1
		artillery_7 = 1
		artillery_8 = 1
		artillery_9 = 1
		interwar_artillery = 1
		early_infantry_weapons5 = 1

		howitzer = 1
		howitzer2 = 1
		howitzer3 = 1
		howitzer4 = 1
		howitzer5 = 1
		howitzer6 = 1
		howitzer7 = 1
		howitzer8 = 1
		howitzer9 = 1
		howitzer10 = 1
		howitzer11 = 1

		superartillery = 1
		superartillery2 = 1

		anti_air = 1
		anti_air2 = 1
		anti_air3 = 1
		interwar_antiair = 1

		early_antitank = 1
		interwar_antitank = 1

		interwar_artillery = 1
		artillery1 = 1
		artillery2 = 1
		artillery3 = 1
		rocket_artillery = 1
		rocket_artillery2 = 1
		interwar_antiair = 1
		antiair1 = 1
		antiair2 = 1
		antiair3 = 1
		interwar_antitank = 1
		antitank1 = 1
		antitank2 = 1
		antitank3 = 1

	# electronics
		census_tabulating = 1
		automatic_feed_tab = 1
		cipher_machine = 1
		teleprinter = 1
		early_decryption = 1
		accounting_machine = 1
		basic_encryption = 1
		electronic_mechanical_engineering = 1
		basic_decryption = 1
		improved_incription = 1
		improved_computing = 1
		improved_decryption = 1
		advanced_computing = 1
		advanced_incription = 1

		radio = 1
		radio_detection = 1
		decimetric_radar = 1
		improved_decimetric_radar = 1
		centimetric_radar = 1
		improved_centimetric_radar = 1
		advanced_centimetric_radar = 1



		basic_encryption = 1
		improved_incription = 1
		advanced_incription = 1
		basic_decryption = 1
		improved_decryption = 1
		advanced_decryption = 1
		atomic_research = 1
		experimental_rockets = 1
		rocket_engines = 1
		jet_engines = 1

	# Industry
		total_war1 = 1
		total_war2 = 1
		total_war3 = 1
		demobilization2 = 1
		streamlined_line = 1
  		dispersed_industry5 = 1
		advanced_oil_plant = 1
		construction5 = 1
		constructiondemob = 1
		construction5 = 1
		construction6 = 1
		construction7 = 1
		construction8 = 1
		construction9 = 1
		construction10 = 1
		construction11 = 1
		early_machine_tools = 1
		improved_early_machine_tools = 1
		advanced_early_machine_tools = 1
		demobilization_machine_tools = 1
		basic_machine_tools = 1
		improved_machine_tools = 1
		advanced_machine_tools = 1
		assembly_line_production = 1
		dispersed_industry = 1
		dispersed_industry2 = 1
		dispersed_industry3 = 1
    		dispersed_industry4 = 1
		synth_rubber_experiments = 1
		rubber_plant = 1
		synth_oil_experiments = 1
		oil_plant = 1
		improved_oil_plant = 1
		construction1 = 1
		excavation1 = 1
		construction2 = 1
		excavation2 = 1
		construction3 = 1
		excavation3 = 1
		construction4 = 1
		excavation4 = 1

		trench_warfare = 1
		wood_flooring = 1
		bunker = 1
		better_trench_conditions = 1
		anti_air52 = 1

	# Land Doctrine

		nineteenth_cent_warfare = 1
		twenty_cent_warfare = 1
		leading_by_task = 1
		strong_point = 1
		mass_charge = 1
		static_defense = 1
		counterattack = 1
		schwerepunkt = 1
		defensive_attrition = 1
		seperate_armed_forces = 1
		central_control = 1
		combined_arms = 1
		cross_branch_tactical = 1
		post_gw = 1
		mobile_warfare = 1
		delay = 1
		elastic_defence = 1
		armored_spearhead = 1
		schwerepunkt2 = 1
		blitzkrieg = 1
		kampfgruppe = 1

	# Infantry

		early_infantry_weapons = 1
		early_infantry_weapons2 = 1
		early_infantry_equip = 1
		early_infantry_weapons3 = 1
		early_infantry_equip2 = 1
		early_infantry_weapons4 = 1
		early_infantry_equip3 = 1

		interwars_infantry_equip = 1
		interwars_infantry_equip2 = 1

		early_support_weapons = 1
		early_support_weapons2 = 1
		early_support_weapons3 = 1
		early_support_weapons4 = 1
		early_support_weapons5 = 1
		interwar_support_weapons = 1
		interwar_support_weapons2 = 1
		interwar_support_weapons3 = 1
		interwar_support_weapons4 = 1
		modern_support_weapons = 1
		modern_support_weapons = 1

		horses = 1
		bicycles = 1

		hand_grenade = 1
		frag_grenade = 1
		gas_mask = 1
		gas_mask2 = 1
		gas_mask3 = 1
		machine_gun = 1
		machine_gun2 = 1
		machine_gun3 = 1
		machine_gun4 = 1
		interwar_machine_gun = 1
		modern_machine_gun = 1


		infantry_weapons = 1
		infantry_weapons1 = 1
		infantry_weapons2 = 1
		improved_infantry_weapons = 1
		improved_infantry_weapons_2 = 1
		infantry_at = 1

		paratroopers = 1

		marines = 1
		marines2 = 1
		tech_mountaineers = 1
		tech_mountaineers2 = 1

		motorised_infantry = 1
early_motorised_infantry = 1
		mechanised_infantry = 1
		mechanised_infantry2 = 1
    	}


set_convoys = 5674

set_politics = {	
	ruling_party = neutrality
	last_election = "1936.1.1"
	election_frequency = 48
	elections_allowed = yes
}

set_popularities = {
    democratic = 25
    fascism = 25
    communism = 25
    neutrality = 25
}
