
strategic_region={
	id=142
	name="STRATEGICREGION_142"
	provinces={
		105 209 224 417 419 463 767 814 895 1023 1106 1116 1156 1545 1588 1630 1702 1776 1920 1945 1946 2015 2049 2123 2134 2224 2284 2397 2430 2518 2554 2687 2791 2805 2961 3073 3382 3501 3507 3577 3604 3607 3645 3794 3820 3841 4156 4160 4583 4598 4748 4852 4900 4928 5025 5038 5261 5323 5525 5748 6053 6088 6166 6170 6346 6488 6566 6644 6742 6789 6864 7050 7199 7280 7315 7401 7402 7587 7643 7675 7750 7752 7808 7885 7910 7971 8165 8240 8262 8569 8616 8773 14877 14884 14912 14927 14950 14955 14966 14989 14990 14991 15029 15036 15042 15046 15061 15066 15075 15100 15103 15132 15147 15150 15155 15174 15191 15202 15207 15219 15231 15240 15259 15264 15265 15266 15278 15296 15297 15306 15314 15325 15329 15344 15351 15358 15359 15364 15369 15375 15376 15416 15422 15432 15457 15469 15477 15481 15485 15494 15503 15504 15516 15517 15523 15530 15535 15542 15543 15546 15567 15568 15581 15592 15593 15599 15608 15614 15623 15629 15641 15642 15659 15664 15690 15697 15701 15725 15735 15740 15755 15773 15779 15794 15799 15808 15822 15823 15848 15854 15872 15901 15925 15940 
	}
	weather={
		period={
			between={ 0.0 30.0 }
			temperature={ -15.0 -6.0 }
			temperature_day_night={ -5.0 2.0 }
			no_phenomenon=0.500
			rain_light=0.250
			rain_heavy=0.100
			snow=0.500
			blizzard=0.300
			arctic_water=0.000
			mud=0.000
			sandstorm=0.000
			min_snow_level=0.000
		}
		period={
			between={ 0.1 27.1 }
			temperature={ -15.0 -6.0 }
			temperature_day_night={ -2.0 2.0 }
			no_phenomenon=0.500
			rain_light=0.250
			rain_heavy=0.100
			snow=0.500
			blizzard=0.300
			arctic_water=0.000
			mud=0.000
			sandstorm=0.000
			min_snow_level=0.000
		}
		period={
			between={ 0.2 30.2 }
			temperature={ 5.0 25.0 }
			temperature_day_night={ -2.0 6.0 }
			no_phenomenon=0.500
			rain_light=0.500
			rain_heavy=0.100
			snow=0.000
			blizzard=0.000
			arctic_water=0.000
			mud=0.000
			sandstorm=0.000
			min_snow_level=0.000
		}
		period={
			between={ 0.3 29.3 }
			temperature={ 5.0 25.0 }
			temperature_day_night={ -2.0 6.0 }
			no_phenomenon=0.500
			rain_light=0.500
			rain_heavy=0.100
			snow=0.000
			blizzard=0.000
			arctic_water=0.000
			mud=0.000
			sandstorm=0.000
			min_snow_level=0.000
		}
		period={
			between={ 0.4 30.4 }
			temperature={ 5.0 25.0 }
			temperature_day_night={ -2.0 6.0 }
			no_phenomenon=0.500
			rain_light=0.500
			rain_heavy=0.100
			snow=0.000
			blizzard=0.000
			arctic_water=0.000
			mud=0.000
			sandstorm=0.000
			min_snow_level=0.000
		}
		period={
			between={ 0.5 29.5 }
			temperature={ 10.0 25.0 }
			temperature_day_night={ -5.0 10.0 }
			no_phenomenon=0.500
			rain_light=0.250
			rain_heavy=0.100
			snow=0.000
			blizzard=0.000
			arctic_water=0.000
			mud=0.000
			sandstorm=0.000
			min_snow_level=0.000
		}
		period={
			between={ 0.6 30.6 }
			temperature={ 10.0 25.0 }
			temperature_day_night={ -5.0 10.0 }
			no_phenomenon=0.500
			rain_light=0.250
			rain_heavy=0.100
			snow=0.000
			blizzard=0.000
			arctic_water=0.000
			mud=0.000
			sandstorm=0.000
			min_snow_level=0.000
		}
		period={
			between={ 0.7 30.7 }
			temperature={ 10.0 25.0 }
			temperature_day_night={ -5.0 10.0 }
			no_phenomenon=0.500
			rain_light=0.250
			rain_heavy=0.100
			snow=0.000
			blizzard=0.000
			arctic_water=0.000
			mud=0.000
			sandstorm=0.000
			min_snow_level=0.000
		}
		period={
			between={ 0.8 29.8 }
			temperature={ 4.0 10.0 }
			temperature_day_night={ -2.0 4.0 }
			no_phenomenon=0.500
			rain_light=0.500
			rain_heavy=0.200
			snow=0.000
			blizzard=0.000
			arctic_water=0.000
			mud=0.000
			sandstorm=0.000
			min_snow_level=0.000
		}
		period={
			between={ 0.9 30.9 }
			temperature={ 4.0 10.0 }
			temperature_day_night={ -2.0 4.0 }
			no_phenomenon=0.500
			rain_light=0.500
			rain_heavy=0.200
			snow=0.000
			blizzard=0.000
			arctic_water=0.000
			mud=0.000
			sandstorm=0.000
			min_snow_level=0.000
		}
		period={
			between={ 0.10 29.10 }
			temperature={ -15.0 -6.0 }
			temperature_day_night={ -5.0 2.0 }
			no_phenomenon=0.500
			rain_light=0.250
			rain_heavy=0.100
			snow=0.500
			blizzard=0.300
			arctic_water=0.000
			mud=0.000
			sandstorm=0.000
			min_snow_level=0.000
		}
		period={
			between={ 0.11 30.11 }
			temperature={ -15.0 -6.0 }
			temperature_day_night={ -5.0 2.0 }
			no_phenomenon=0.500
			rain_light=0.250
			rain_heavy=0.100
			snow=0.500
			blizzard=0.300
			arctic_water=0.000
			mud=0.000
			sandstorm=0.000
			min_snow_level=0.000
		}
		period={
			between={ 4.11 21.11 }
			temperature={ -10.0 35.0 }
			temperature_day_night={ 2.0 -2.0 }
			no_phenomenon=1.500
			rain_light=0.250
			rain_heavy=0.100
			snow=0.000
			blizzard=0.000
			arctic_water=0.000
			mud=0.000
			sandstorm=0.000
			min_snow_level=0.000
		}
	}
}
