
strategic_region={
	id=96
	name="STRATEGICREGION_96"
	provinces={
		128 200 674 977 995 1193 1233 1352 1636 1706 1717 1871 1883 1911 2281 2367 2402 2614 3010 3375 3506 3653 3766 3767 3770 3924 4034 4203 4240 4637 4991 5068 5104 5148 5152 5217 5258 5324 5574 5817 5850 5878 5950 5975 6022 6117 6124 6178 6209 6313 6411 6425 6561 6614 7067 7105 7175 7245 7324 7347 7465 7602 7625 7668 7953 8098 8235 8269 8501 10977 11039 11073 11105 11113 11131 11170 11175 11202 11246 11265 11266 11267 11274 11283 11306 11307 11312 11321 11322 11336 11337 11338 11367 11380 11398 11399 11400 11415 11416 11417 11430 11431 11450 11461 11471 11492 11493 11506 11516 11517 11534 11535 11536 11541 11557 11567 11568 11591 11606 11632 11633 11639 11652 11653 11672 11684 11696 11707 11713 11714 11726 11748 11749 11750 11778 11787 11793 11794 11795 11806 11814 11832 11833 11848 11855 11875 11876 11896 11910 11911 11912 11930 11931 11937 11956 11973 11974 12000 12006 12017 12018 12041 12053 12073 12100 12107 12118 12129 12147 12204 12212 18732 
	}
	weather={
		period={
			between={ 0.0 30.0 }
			temperature={ 4.0 8.0 }
			temperature_day_night={ 8.0 -8.0 }
			no_phenomenon=0.500
			rain_light=0.300
			rain_heavy=0.100
			snow=0.100
			blizzard=0.000
			arctic_water=0.000
			mud=1.000
			sandstorm=0.000
			min_snow_level=0.000
		}
		period={
			between={ 0.1 27.1 }
			temperature={ 3.0 8.0 }
			temperature_day_night={ 8.0 -10.0 }
			no_phenomenon=0.500
			rain_light=0.300
			rain_heavy=0.100
			snow=0.100
			blizzard=0.000
			arctic_water=0.000
			mud=1.000
			sandstorm=0.000
			min_snow_level=0.000
		}
		period={
			between={ 0.2 30.2 }
			temperature={ 5.0 10.0 }
			temperature_day_night={ 9.0 -5.0 }
			no_phenomenon=0.500
			rain_light=0.300
			rain_heavy=0.100
			snow=0.050
			blizzard=0.000
			arctic_water=0.000
			mud=1.000
			sandstorm=0.000
			min_snow_level=0.000
		}
		period={
			between={ 0.3 29.3 }
			temperature={ 7.0 13.0 }
			temperature_day_night={ 11.0 -6.0 }
			no_phenomenon=0.600
			rain_light=0.400
			rain_heavy=0.100
			snow=0.000
			blizzard=0.000
			arctic_water=0.000
			mud=1.000
			sandstorm=0.000
			min_snow_level=0.000
		}
		period={
			between={ 0.4 30.4 }
			temperature={ 10.0 16.0 }
			temperature_day_night={ 9.0 -6.0 }
			no_phenomenon=0.600
			rain_light=0.350
			rain_heavy=0.100
			snow=0.000
			blizzard=0.000
			arctic_water=0.000
			mud=1.000
			sandstorm=0.000
			min_snow_level=0.000
		}
		period={
			between={ 0.5 29.5 }
			temperature={ 13.0 19.0 }
			temperature_day_night={ 10.0 -4.0 }
			no_phenomenon=0.700
			rain_light=0.250
			rain_heavy=0.050
			snow=0.000
			blizzard=0.000
			arctic_water=0.000
			mud=1.000
			sandstorm=0.000
			min_snow_level=0.000
		}
		period={
			between={ 0.6 30.6 }
			temperature={ 15.0 21.0 }
			temperature_day_night={ 10.0 -4.0 }
			no_phenomenon=0.700
			rain_light=0.250
			rain_heavy=0.050
			snow=0.000
			blizzard=0.000
			arctic_water=0.000
			mud=1.000
			sandstorm=0.000
			min_snow_level=0.000
		}
		period={
			between={ 0.7 30.7 }
			temperature={ 16.0 20.0 }
			temperature_day_night={ 10.0 -4.0 }
			no_phenomenon=0.700
			rain_light=0.250
			rain_heavy=0.050
			snow=0.000
			blizzard=0.000
			arctic_water=0.000
			mud=1.000
			sandstorm=0.000
			min_snow_level=0.000
		}
		period={
			between={ 0.8 29.8 }
			temperature={ 14.0 19.0 }
			temperature_day_night={ 10.0 -4.0 }
			no_phenomenon=0.700
			rain_light=0.250
			rain_heavy=0.150
			snow=0.000
			blizzard=0.000
			arctic_water=0.000
			mud=1.000
			sandstorm=0.000
			min_snow_level=0.000
		}
		period={
			between={ 0.9 30.9 }
			temperature={ 11.0 15.0 }
			temperature_day_night={ 9.0 -9.0 }
			no_phenomenon=0.600
			rain_light=0.350
			rain_heavy=0.100
			snow=0.000
			blizzard=0.000
			arctic_water=0.000
			mud=1.000
			sandstorm=0.000
			min_snow_level=0.000
		}
		period={
			between={ 0.10 29.10 }
			temperature={ 7.0 11.0 }
			temperature_day_night={ 6.0 -8.0 }
			no_phenomenon=0.500
			rain_light=0.350
			rain_heavy=0.150
			snow=0.000
			blizzard=0.000
			arctic_water=0.000
			mud=1.000
			sandstorm=0.000
			min_snow_level=0.000
		}
		period={
			between={ 0.11 30.11 }
			temperature={ 4.0 8.0 }
			temperature_day_night={ 7.0 -7.0 }
			no_phenomenon=0.500
			rain_light=0.300
			rain_heavy=0.150
			snow=0.050
			blizzard=0.000
			arctic_water=0.000
			mud=1.000
			sandstorm=0.000
			min_snow_level=0.000
		}
		period={
			between={ 4.11 21.11 }
			temperature={ -10.0 35.0 }
			temperature_day_night={ 2.0 -2.0 }
			no_phenomenon=1.500
			rain_light=0.250
			rain_heavy=0.100
			snow=0.000
			blizzard=0.000
			arctic_water=0.000
			mud=0.000
			sandstorm=0.000
			min_snow_level=0.000
		}
	}
}
