state={
	id=1
	name="STATE_1"
	provinces={
		2321 8876 8877 8878 8900 
	}
	history = {
		 = ENG
		 = ENG
	}
	manpower=1000000
	state_category = large_town
	buildings_max_level_factor=1.000
	
}
