state={
	id=11
	name="STATE_11"
	provinces={
		8883 8902 8904 8921 
	}
	history = {
		 = ENG
		 = ENG
	}
	manpower=1000000
	state_category = large_town
	buildings_max_level_factor=1.000
	
}
