state={
	id=149
	name="STATE_149"
	provinces={
		1745 4493 10826 
	}
	history = {
		buildings = {
			infrastructure = 10
			arms_factory = 2
			industrial_complex = 3

		1944.12.26 = {
			owner = USA
		}

		}
		owner = GER
		 add_core_of = FRA
		1944.12.26 = {
			owner = USA
		}
	}
	manpower=1000000
	state_category = large_town
	buildings_max_level_factor=1.000
}
