state={
	id=176
	name="STATE_176"
	provinces={
		625 2341 2546 2618 2664 3208 4081 4105 4134 4329 4379 4833 5156 5391 5547 5943 6094 6706 6809 6962 7298 7369 7866 8457 11220 11292 11301 11345 11351 11352 11353 11376 11377 11386 11414 11420 11440 11458 11477 11488 11489 11497 11503 11523 11538 11549 11555 11583 11604 11610 11626 11627 11628 11648 11701 11702 11703 11756 11776 11789 11804 11846 
	}
	manpower=1000000
	state_category = large_town
	buildings_max_level_factor=1.000

	history = {
		buildings = {
			infrastructure = 10
			arms_factory = 2
			industrial_complex = 3
		}
		 owner = GER
		 add_core_of = FRA
		1944.12.26 = {
			owner = USA
		}
	}
}
