state={
	id=178
	name="STATE_178"
	provinces={
		128 200 2614 3506 3653 3767 3770 5068 5574 6209 6313 6411 7067 7953 8269 11267 11274 11307 11322 11399 11400 11506 11536 11568 11633 11714 11778 11795 11848 11855 11912 11931 
	}
	manpower=1000000
	state_category = large_town
	buildings_max_level_factor=1.000
	
	history = {
		buildings = {
			infrastructure = 10
			arms_factory = 2
			industrial_complex = 3
		}
		 = BAR
		 = BAR
	}
}
