state={
	id=199
	name="STATE_199"
	provinces={
		636 769 1005 1840 2177 3062 3150 3164 3338 3686 3818 3862 3878 4015 4095 4697 4804 4815 4898 5264 5742 6103 6599 6955 7075 7518 7731 8056 8126 8177 8758 8784 11965 11971 11972 11999 12016 12039 12080 12117 12150 12165 12186 12194 12211 12228 12237 12242 12250 12303 12315 12346 12374 12397 12431 12443 12457 12499 12526 12540 12610 12638 12675 12702 12710 12723 12724 12751 12752 12799 12806 12830 12879 12880 
	}
	manpower=1000000
	state_category = large_town
	buildings_max_level_factor=1.000

	history = {
		buildings = {
			infrastructure = 10
			arms_factory = 2
			industrial_complex = 3
		}
		 = MON
		 = MON
	}
}
