state={
	id=2
	name="STATE_2"
	provinces={
		1532 3890 5701 6755 7545 8903 
	}
	history = {
		 = ENG
		 = ENG
	}
	manpower=1000000
	state_category = large_town
	buildings_max_level_factor=1.000
	
}
