state={
	id=222
	name="STATE_222"
	provinces={
		415 531 1308 1415 2387 2514 3013 3064 3636 4385 4622 4700 5113 5198 5805 5948 6262 6506 6743 6781 12587 12648 12700 12707 12720 12721 12737 12774 12779 12798 12815 12841 12845 12875 12876 12883 12884 12895 12911 12921 12922 12941 12949 12950 12956 12978 12987 12994 13008 13009 13061 13065 13087 13115 13129 13148 13172 13183 13197 13211 13238 13244 13272 
	}
	manpower=1000000
	state_category = large_town
	buildings_max_level_factor=1.000

	history = {
		buildings = {
			infrastructure = 10
			arms_factory = 2
			industrial_complex = 3
		}
		 = ANG
		 = ANG
	}
}
