state={
	id=223
	name="STATE_223"
	provinces={
		817 1939 2121 2368 2643 3932 8736 12612 12629 12691 12742 12787 12788 12820 12900 12906 12964 
	}
	manpower=1000000
	state_category = large_town
	buildings_max_level_factor=1.000
	
	history = {
		buildings = {
			infrastructure = 10
			arms_factory = 2
			industrial_complex = 3
		}
		 = ALT
		 = ALT
	}
}
