state={
	id=234
	name="STATE_234"
	provinces={
		192 2176 2948 3082 3364 4094 4163 4876 5117 5149 5557 6707 6722 7119 8246 12800 12881 12898 12938 12997 13014 13055 13056 13083 13110 13116 13123 13158 13176 13193 13223 13240 13248 13249 13279 13280 13340 13367 13368 13379 
	}
	manpower=1000000
	state_category = large_town
	buildings_max_level_factor=1.000
	
	history = {
		buildings = {
			infrastructure = 10
			arms_factory = 2
			industrial_complex = 3
		}
		 = CCL
		 = CCL
	}
}
