state={
	id=242
	name="STATE_242"
	provinces={
		337 1149 1755 2096 2289 2358 2822 2830 3058 3098 3131 3262 3329 3331 3397 3521 3593 3815 3824 4198 4207 5052 5154 5532 5875 6397 6620 7037 7048 7300 7470 7861 8003 8118 8208 8383 12917 12931 12982 13013 13028 13045 13054 13096 13151 13157 13175 13192 13217 13256 13278 13288 13307 13323 13334 13339 13347 13378 13389 13390 13395 13396 13426 13427 13437 13438 13444 13458 13465 13484 13506 13507 13512 13514 13587 13593 13638 13659 
	}
	manpower=1000000
	state_category = large_town
	buildings_max_level_factor=1.000
	
	history = {
		buildings = {
			infrastructure = 10
			arms_factory = 2
			industrial_complex = 3
		}
		 = BRG
		 = BRG
	}
}
