state={
	id=284
	name="STATE_284"
	provinces={
		321 409 1040 2163 2418 3200 3505 3851 3930 4398 4769 4795 4899 6294 6918 6945 7229 7392 8614 13751 13804 13834 13852 13854 13861 13862 13875 13886 13898 13916 13940 13968 13977 13997 14026 14034 14049 14054 14069 14079 14095 14115 14139 
	}
	manpower=1000000
	state_category = large_town
	buildings_max_level_factor=1.000

	history = {
		buildings = {
			infrastructure = 10
			arms_factory = 2
			industrial_complex = 3
		}
		 = PRH
		 = PRH
	}
}
