state={
	id=296
	name="STATE_296"
	provinces={
		1183 2909 3198 3424 5418 5862 6036 6155 13988 14005 14024 14041 14053 14062 14063 14093 14099 14111 14119 14122 14133 14149 14157 14185 14196 14197 14232 14244 14293 14309 
	}
	manpower=1000000
	state_category = large_town
	buildings_max_level_factor=1.000
	
	history = {
		buildings = {
			infrastructure = 10
			arms_factory = 2
			industrial_complex = 3
		}
		 = SCL
		 = SCL
	}
}
