state={
	id=313
	name="STATE_313"
	provinces={
		1278 1829 1879 4354 4403 4586 4692 5370 5528 5576 6172 6287 6515 6886 8321 14399 14411 14459 14460 14495 14573 14586 
	}
	manpower=1000000
	state_category = large_town
	buildings_max_level_factor=1.000
	
	history = {
		buildings = {
			infrastructure = 10
			arms_factory = 2
			industrial_complex = 3
		}
		 = NNT
		 = NNT
	}
}
