state={
	id=316
	name="STATE_316"
	provinces={
		691 1540 1992 5045 6668 6916 8763 14512 14517 14528 14533 14559 14574 14582 14608 14611 14691 
	}
	manpower=1000000
	state_category = large_town
	buildings_max_level_factor=1.000
	
	history = {
		buildings = {
			infrastructure = 10
			arms_factory = 2
			industrial_complex = 3
		}
		 = SJG
		 = SJG
	}
}
