state={
	id=334
	name="STATE_334"
	provinces={
		203 276 602 1166 2132 2471 2714 2787 3881 4612 4912 5281 5477 6001 6548 7509 14755 14793 14810 14823 14838 14873 14886 14887 14929 14951 15017 15024 15083 15141 
	}
	history = {
		 = ITA
		 = ITA
	}
	manpower=1000000
	state_category = large_town
	buildings_max_level_factor=1.000
	
}
