state={
	id=369
	name="STATE_369"
	provinces={
		720 899 948 2861 3136 3526 3869 3920 4047 4133 4209 4432 4896 6150 6913 6929 7095 7356 7965 8207 8474 8649 8677 8846 15304 15312 15335 15342 15382 15407 15467 15512 15522 15526 15564 15565 15573 15617 15618 15669 15716 15733 15739 15777 15839 15886 
	}
	manpower=1000000
	state_category = large_town
	buildings_max_level_factor=1.000

	history = {
		buildings = {
			infrastructure = 10
			arms_factory = 2
			industrial_complex = 3
		}
		 = BRU
		 = BRU
	}
}
