state={
	id=37
	name="STATE_37"
	provinces={
		623 645 846 2042 2063 2195 2369 2679 2774 2874 3207 3687 3780 4010 5592 5803 7193 7672 8030 9075 9112 9123 9129 9136 9153 9163 9165 9170 9173 9179 9183 9184 9185 9190 9192 9205 9222 9223 9229 9241 9243 9245 9247 9258 9266 
	}
	history = {
		owner = USA
		add_core_of = USA

	}
	manpower=1000000
	state_category = large_town
	buildings_max_level_factor=1.000
	
}
