state={
	id=370
	name="STATE_370"
	provinces={
		98 269 818 2279 6257 6650 15518 15682 
	}
	history = {
		 = ITA
		 = ITA
	}
	manpower=1000000
	state_category = large_town
	buildings_max_level_factor=1.000
	
}
