state={
	id=393
	name="STATE_393"
	provinces={
		71 388 520 840 1077 1092 1967 2113 2257 2442 2562 2777 2865 3033 3037 3679 3966 3995 4142 4265 4667 4917 4960 5150 5401 5433 5786 5821 5918 5930 6186 6319 6440 6463 6576 6803 6830 7558 7888 7935 7951 7987 8223 8553 8624 8845 15837 15852 15938 15947 15956 15979 16025 16026 16056 16067 16077 16118 16142 16151 16152 16201 16202 16210 16226 16239 16256 16266 16267 16268 16297 16298 16337 16338 16339 16345 16367 16373 16379 16405 16411 16428 16435 16472 16478 16487 16488 16514 16515 16523 16538 16550 16556 16565 16566 16572 16573 16574 16593 16650 16657 16681 16705 16804 
	}
	manpower=1000000
	state_category = large_town
	buildings_max_level_factor=1.000

	history = {
		buildings = {
			infrastructure = 10
			arms_factory = 2
			industrial_complex = 3
		}
		 = RDZ
		 = RDZ
	}
}
