state={
	id=398
	name="STATE_398"
	provinces={
		847 875 916 1511 1601 1847 2005 2229 2283 2380 2500 2529 2547 3259 3320 3396 3701 3989 4080 4110 4181 4204 4283 4811 5290 5780 6497 7108 7132 7453 7657 7765 7777 7855 7946 8081 8201 15897 15983 15998 16007 16018 16019 16020 16028 16055 16063 16074 16095 16096 16123 16126 16136 16139 16140 16143 16154 16155 16160 16177 16178 16179 16182 16183 16204 16229 16234 16235 16241 16246 16247 16260 16261 16281 16282 16283 16292 16300 16310 16329 16335 16353 16360 16369 16413 16477 16585 
	}
	manpower=1000000
	state_category = large_town
	buildings_max_level_factor=1.000

	history = {
		buildings = {
			infrastructure = 10
			arms_factory = 2
			industrial_complex = 3
		}
		 = GAP
		 = GAP
	}
}
