state={
	id=415
	name="STATE_415"
	provinces={
		50 519 1627 2054 2081 2102 2153 3618 3720 3736 4179 4723 5239 5321 6502 6503 7905 8123 16346 16356 16394 16395 16406 16407 16440 16456 16482 16489 16503 16516 16519 16524 16540 16557 16558 16583 16621 16630 16635 
	}
	manpower=1000000
	state_category = large_town
	buildings_max_level_factor=1.000

	history = {
		buildings = {
			infrastructure = 10
			arms_factory = 2
			industrial_complex = 3
		}
		 = FAC
		 = FAC
	}
}
