state={
	id=444
	name="STATE_444"
	provinces={
		306 771 855 883 943 994 1036 1266 1638 2012 2157 2530 2751 3047 3155 5199 5265 5353 5487 5569 6856 7052 7176 7502 7659 7766 8289 17060 17106 17145 17157 17199 17203 17247 17256 17266 17267 17276 17292 17310 17311 17324 17325 17354 17381 17389 17390 17418 17423 17424 17440 17441 17493 17543 17544 17565 17586 17618 17635 17666 17692 
	}
	manpower=1000000
	state_category = large_town
	buildings_max_level_factor=1.000

	history = {
		buildings = {
			infrastructure = 10
			arms_factory = 2
			industrial_complex = 3
			17544 = {
				naval_base = 4
			}
		}
		 = DGG
		 = DGG
	}
}
