state={
	id=478
	name="STATE_478"
	provinces={
		344 450 919 2328 2998 3413 3682 3998 5735 5793 6286 6483 7406 8332 8586 17776 17777 17778 17814 17841 17862 17878 17881 17907 17911 17914 17917 17966 17970 17981 18028 
	}
	manpower=1000000
	state_category = large_town
	buildings_max_level_factor=1.000

	history = {
		buildings = {
			infrastructure = 10
			arms_factory = 2
			industrial_complex = 3
		}
		 = AGZ
		 = AGZ
	}
}
