state={
	id=494
	name="STATE_494"
	provinces={
		360 635 682 928 1061 1094 1538 2114 2362 2717 2920 3498 3651 4759 5845 6664 7964 8074 18077 18110 18152 18155 18183 18187 18243 18255 
	}
	history = {
		 = SPR
		 = SPR
	}
	manpower=1000000
	state_category = large_town
	buildings_max_level_factor=1.000
	
}
