state={
	id=510
	name="STATE_510"
	provinces={
		325 6986 18358 
	}
	history = {
		 = SPR
		 = SPR
	}
	manpower=1000000
	state_category = large_town
	buildings_max_level_factor=1.000
	
}
