
state={
	id=64
	name="STATE_64"
	provinces={
		9326 9349 19394 
	}
	history = {
		owner = USA
		add_core_of = USA

	}
	manpower=1000000
	state_category = large_town
	buildings_max_level_factor=1.000
	
}
