state={
	id=66
	name="STATE_66"
	provinces={
		300 696 876 906 1188 1346 1486 1767 1797 1880 1949 2200 2338 3190 3363 3390 3556 3630 3640 3814 4078 4560 4573 5513 5781 6014 6082 6220 8135 8188 8549 8692 9547 9604 9642 9653 9676 9699 9710 9711 9734 9761 9762 9796 9805 9917 9942 
	}
	history = {
		owner = GER
		 add_core_of = FRA
		1944.12.26 = {
			owner = USA
		}
	}
	manpower=1000000
	state_category = large_town
	buildings_max_level_factor=1.000

}
